…
## List repositories for a collection



```r
bs_repositories(coll = "ceu")
#> # A tibble: 3,027 x 2
#>    name                                                          internal_name  
#>    <chr>                                                         <chr>          
#>  1 Ukrainian Journal of Radiology and Oncology                   ftjukroj       
#>  2 M@n@gement (E-Journal)                                        ftjmgmt        
#>  3 Blick in die Wissenschaft (E-Journal)                         ftjbidw        
#>  4 thebmj (via Crossref)                                         crjcrbmj       
#>  5 UARTPress: OJS                                                ftuartpressojs 
#>  6 IOP Publishing (via Crossref)                                 crioppubl      
#>  7 Royal Society of Chemistry Journals, books & databases (via … crroyalschem   
#>  8 Brill (via Crossref)                                          crbrillap      
#>  9 Különbség (E-Journal)                                         ftjkulonbseg   
#> 10 Acta Cybernetica (E-Journal)                                  ftjactacyberne…
#> # … with 3,017 more rows
```
…
